Name,N using,N not using,Percent useage
C,50,86,36.76470588235294
C++,71,65,52.205882352941174
C#,13,123,9.558823529411764
Go,49,87,36.029411764705884
Java,55,81,40.44117647058823
Javascript,31,105,22.794117647058822
Python,102,34,75.0
Ruby,9,127,6.617647058823529
Rust,20,116,14.705882352941176
Scala,11,125,8.088235294117647
